{
  "label": "Large Square",
  "width": 150,
  "height": 150,
  "source": "https://live.staticflickr.com/65535/49392635048_67b42dd973_q.jpg",
  "url": "https://www.flickr.com/photos/stolensoul/49392635048/sizes/q/",
  "media": "photo"
}
